IS415-GAA - Application of Spatial and Spatio-temporal Analysis Methods to Discover the Distribution of Dengue Fever in Tainan City, Taiwan
…
# Then, add a column for the epidemiological week and year
dengue2023 <- dengue2023 %>%
  mutate(
    EPID_WEEK = isoweek(發病日期),
    EPID_YEAR = year(發病日期)
  )

# Now, filter the data for epidemiological weeks 31-50 in 2023
dengue_week31_50_2023 <- dengue2023 %>%
  filter(EPID_YEAR == 2023 & EPID_WEEK >= 31 & EPID_WEEK <= 50)

# Check the result
print(dengue_week31_50_2023)

# A tibble: 25,480 × 29
   發病日     個案研判日 通報日     性別  年齡層 居住縣市 居住鄉鎮 居住村里
   <date>     <chr>      <date>     <chr> <chr>  <chr>    <chr>    <chr>   
 1 2023-07-31 2023/07/31 2023-07-31 女    30-34  台南市   永康區   埔園里  
 2 2023-07-31 2023/07/31 2023-07-31 男    55-59  台南市   東區     大智里  
 3 2023-07-31 2023/07/31 2023-07-31 男    5-9    台南市   永康區   五王里  
 4 2023-07-31 2023/07/31 2023-07-31 男    70+    台南市   仁德區   成功里  
 5 2023-07-31 2023/07/31 2023-07-31 男    55-59  台南市   永康區   中興里  
 6 2023-07-31 2023/07/31 2023-07-31 男    30-34  雲林縣   古坑鄉   高林村  
 7 2023-07-31 2023/07/31 2023-07-31 女    40-44  台南市   永康區   復華里  
 8 2023-07-31 2023/08/01 2023-08-01 女    30-34  台南市   仁德區   仁德里  
 9 2023-07-31 2023/08/01 2023-08-01 男    70+    雲林縣   古坑鄉   荷苞村  
10 2023-07-31 2023/08/01 2023-08-01 男    15-19  台南市   東區     崇善里  
# ℹ 25,470 more rows
# ℹ 21 more variables: 最小統計區 <chr>, 最小統計區中心點X <chr>,
#   最小統計區中心點Y <chr>, 一級統計區 <chr>, 二級統計區 <chr>,
#   感染縣市 <chr>, 感染鄉鎮 <chr>, 感染村里 <chr>, 是否境外移入 <chr>,
#   感染國家 <chr>, 確定病例數 <dbl>, 居住村里代碼 <chr>, 感染村里代碼 <chr>,
#   血清型 <chr>, 內政部居住縣市代碼 <chr>, 內政部居住鄉鎮代碼 <chr>,
#   內政部感染縣市代碼 <chr>, 內政部感染鄉鎮代碼 <chr>, 發病日期 <date>, …
…
最小統計區中心點X: x-coordinate

最小統計區中心點Y: y-coordinate

Let’s keep only these 3 columns:

# Select only the necessary columns
dengue_cases <- dengue_week31_50_2023 %>%
  select(發病日期, 最小統計區中心點X, 最小統計區中心點Y)

# Check the result
print(dengue_cases)

# A tibble: 25,480 × 3
   發病日期   最小統計區中心點X 最小統計區中心點Y
   <date>     <chr>             <chr>            
 1 2023-07-31 120.253752333     23.031699814     
 2 2023-07-31 120.232374917     22.962366283     
 3 2023-07-31 120.235733496     23.013083716     
 4 2023-07-31 120.225744179     22.957479956     
 5 2023-07-31 120.236501733     23.004533744     
 6 2023-07-31 120.569102533     23.671263060     
 7 2023-07-31 120.248094155     23.014554416     
 8 2023-07-31 120.251073582     22.971075521     
 9 2023-07-31 120.584381057     23.668717366     
10 2023-07-31 120.231829094     22.972059640     
# ℹ 25,470 more rows
…
