IS415-GAA - Application of Spatial and Spatio-temporal Analysis Methods to Discover the Distribution of Dengue Fever in Tainan City, Taiwan
…
schools <- read_csv("data/aspatial/school_coordinates.csv")

schools_sf <- st_as_sf(schools,
                       coords = c("Longitude", "Latitude"),
                       crs=4326) %>%
  st_transform(3414)

schools_sf

Simple feature collection with 410 features and 5 fields
Geometry type: POINT
Dimension:     XY
Bounding box:  xmin: 11750.82 ymin: 28603.93 xmax: 42410.51 ymax: 48769.53
Projected CRS: SVY21 / Singapore TM
# A tibble: 410 × 6
    ...1 SCHOOL                    AREA  TYPE  ADDRESS            geometry
 * <dbl> <chr>                     <chr> <chr> <chr>           <POINT [m]>
 1     0 Admiralty Primary School  Wood… Prim… 11 WOO… (24296.62 47144.77)
 2     1 Ahmad Ibrahim Primary Sc… Yish… Prim… 10 YIS… (27958.14 46096.26)
 3     2 Ai Tong School            Bish… Prim… 100 BR… (27966.81 38071.92)
 4     3 Alexandra Primary School  Buki… Prim… 2A PRI… (27010.19 30414.72)
 5     4 Anchor Green Primary Sch… Seng… Prim… 31 ANC… (33992.45 41365.63)
 6     5 Anderson Primary School   Ang … Prim… 19 ANG… (28898.48 40690.43)
 7     6 Ang Mo Kio Primary School Ang … Prim… 20 ANG… (28702.49 39038.16)
 8     7 Anglo-Chinese School (Ju… Cent… Prim… 16 WIN… (28916.31 32403.75)
 9     8 Anglo-Chinese School (Pr… Buki… Prim… 50 BAR… (28254.98 33404.23)
10     9 Angsana Primary School    Tamp… Prim… 3 TAMP… (41160.87 36732.32)
# ℹ 400 more rows
…
